AWSTATS DATA FILE 7.4 (build 20140726)
# If you remove this file, all statistics for date 201704 will be lost/reset.
# Last config file used to build this data file was /home/upstinnlineco/tmp/awstats/awstats.upstconline.co.in.conf.

# Position (offset in bytes) in this file for beginning of each section for
# direct I/O access. If you made changes somewhere in this file, you should
# also remove completely the MAP section (AWStats will rewrite it at next
# update).
BEGIN_MAP 28
POS_GENERAL 2019                
POS_TIME 2690                
POS_VISITOR 7415                
POS_DAY 8166                
POS_DOMAIN 3198                
POS_LOGIN 3479                
POS_ROBOT 3634                
POS_WORMS 3800                
POS_EMAILSENDER 3931                
POS_EMAILRECEIVER 4074                
POS_SESSION 8456                
POS_SIDER 8613                
POS_FILETYPES 4209                
POS_DOWNLOADS 4306                
POS_OS 5581                
POS_BROWSER 5739                
POS_SCREENSIZE 6029                
POS_UNKNOWNREFERER 6103                
POS_UNKNOWNREFERERBROWSER 6216                
POS_ORIGIN 6324                
POS_SEREFERRALS 6456                
POS_PAGEREFS 6609                
POS_SEARCHWORDS 6757                
POS_KEYWORDS 6909                
POS_MISC 2354                
POS_ERRORS 6968                
POS_CLUSTER 3335                
POS_SIDER_404 7052                
END_MAP

# LastLine    = Date of last record processed - Last record line number in last log - Last record offset in last log - Last record signature value
# FirstTime   = Date of first visit for history file
# LastTime    = Date of last visit for history file
# LastUpdate  = Date of last update - Nb of parsed records - Nb of parsed old records - Nb of parsed new records - Nb of parsed corrupted - Nb of parsed dropped
# TotalVisits = Number of visits
# TotalUnique = Number of unique visitors
# MonthHostsKnown   = Number of hosts known
# MonthHostsUnKnown = Number of hosts unknown
BEGIN_GENERAL 8
LastLine 20170501034231 1 0 9924463595415
FirstTime 20170401125555
LastTime 20170428064943
LastUpdate 20170501072141 1 0 0 0 0
TotalVisits 17                  
TotalUnique 17                  
MonthHostsKnown 0                   
MonthHostsUnknown 19                  
END_GENERAL

# Misc ID - Pages - Hits - Bandwidth
BEGIN_MISC 10
AddToFavourites 0 0 0
WindowsMediaPlayerSupport 0 0 0
TotalMisc 0 0 0
DirectorSupport 0 0 0
FlashSupport 0 0 0
QuickTimeSupport 0 0 0
PDFSupport 0 0 0
JavascriptDisabled 0 0 0
RealPlayerSupport 0 0 0
JavaEnabled 0 0 0
END_MISC

# Hour - Pages - Hits - Bandwidth - Not viewed Pages - Not viewed Hits - Not viewed Bandwidth
BEGIN_TIME 24
0 0 0 0 0 0 0
1 0 0 0 0 0 0
2 3 3 609 0 2 0
3 3 3 609 7 12 812
4 1 1 203 0 1 0
5 1 1 203 0 1 0
6 2 2 406 2 4 203
7 1 1 203 0 1 0
8 0 0 0 0 0 0
9 0 0 0 0 0 0
10 3 3 609 0 2 0
11 0 0 0 0 0 0
12 1 1 203 0 1 0
13 0 0 0 0 0 0
14 0 0 0 0 0 0
15 3 3 609 0 0 0
16 0 0 0 0 0 0
17 0 0 0 0 0 0
18 0 0 0 0 0 0
19 1 1 203 0 0 0
20 0 0 0 0 0 0
21 1 64 3707 0 1 0
22 1 1 203 0 0 0
23 0 0 0 0 0 0
END_TIME

# Domain - Pages - Hits - Bandwidth
# The 25 first Pages must be first (order not required for others)
BEGIN_DOMAIN 6
us 12 72 5781
in 6 6 1218
ca 1 1 203
ma 1 1 203
nl 1 1 203
gb 0 3 159
END_DOMAIN

# Cluster ID - Pages - Hits - Bandwidth
BEGIN_CLUSTER 0
END_CLUSTER

# Login - Pages - Hits - Bandwidth - Last visit
# The 10 first Pages must be first (order not required for others)
BEGIN_LOGIN 0
END_LOGIN

# Robot ID - Hits - Bandwidth - Last visit - Hits on robots.txt
# The 25 first Hits must be first (order not required for others)
BEGIN_ROBOT 1
googlebot 5 1015 20170428034231 0
END_ROBOT

# Worm ID - Hits - Bandwidth - Last visit
# The 5 first Hits must be first (order not required for others)
BEGIN_WORMS 0
END_WORMS

# EMail - Hits - Bandwidth - Last visit
# The 20 first Hits must be first (order not required for others)
BEGIN_EMAILSENDER 0
END_EMAILSENDER

# EMail - Hits - Bandwidth - Last visit
# The 20 first hits must be first (order not required for others)
BEGIN_EMAILRECEIVER 0
END_EMAILRECEIVER

# Files type - Hits - Bandwidth - Bandwidth without compression - Bandwidth after compression
BEGIN_FILETYPES 2
html 21 4263 0 0
txt 63 3504 0 0
END_FILETYPES

# Downloads - Hits - Bandwidth
BEGIN_DOWNLOADS 27
/197F51FB31FCFE914647B81723DF6AD5.txt 12 0 636
/BD1B0F20D8AEA01E6B16902A0F230001.txt 6 0 318
/D15EDBB2588A04A20B6DD5E28C651979.txt 5 0 265
/D8FF58A0C9FB3B144F68522B82B77DC8.txt 5 0 265
/48B9E3A2D060571887CDB612EECE0E5F.txt 4 0 212
/6CD9BA36182DB6CBE78FA1695113E4F5.txt 4 0 212
/231B3C196F2A22F0F8DD5444B7898EEC.txt 3 0 159
/F15EAE91AD9D9F2B68580229F2B554EF.txt 3 0 159
/21843B98EA02CC51A45035D56FF3820D.txt 2 0 106
/40405D5CCD0F7280A8E02ADA376320E1.txt 2 0 106
/8D7C6FFA93566259D6539CD5C38A116B.txt 1 0 64
/9DAA9FB74C5FAF4385D2DF711ECA3E2D.txt 1 0 64
/F07DF2F204BD0B96E06D8FA7F086F1EB.txt 1 0 64
/14519F0DC6A4E15DD512248F5DF6CE5E.txt 1 0 53
/9642289017634B5E3EF601F63B1F3995.txt 1 0 64
/B79F3BF1885D0B7B06BEE2075408CCB4.txt 1 0 64
/F9C3839755F89DE246758A57B9C062CA.txt 1 0 64
/37C2D35FBD95C97E90BD7EFFBEE77932.txt 1 0 64
/4749E217F801BFEDD0C1885895CB975D.txt 1 0 53
/2EAFA7B16532B8C1AE4C550B09F35C3B.txt 1 0 64
/CFCC7FB713EA37E05D5EAF84D4ED167E.txt 1 0 64
/646E34106F791D1345AD6C022B069A10.txt 1 0 64
/58F3E3FCCB20C0FA519D1351F9ED7748.txt 1 0 64
/0579FE2ACEEF66D8E45367B543EDCA73.txt 1 0 64
/5167D9B1DE43269FC668B8392406D6F3.txt 1 0 64
/0B45B4CE961F8A6D943AFC84FC873196.txt 1 0 64
/496113EF3570A72A82AE5D41ECEA2F4F.txt 1 0 64
END_DOWNLOADS

# OS ID - Hits
BEGIN_OS ID - Hits - Pages 8
winxp 1 1
Unknown 63 0
win8.1 3 3
macosx5 1 1
win7 7 7
macosx 1 1
linuxandroid 6 6
linux 2 2
END_OS

# Browser ID - Hits - Pages
BEGIN_BROWSER 14
chrome45.0.2454.101 1 1
firefox27.0 1 1
firefox54.0 2 2
firefox3.6.13 1 1
chrome55.0.2883.91 5 5
chrome57.0.2987.133 2 2
msie11.0 1 1
wget 1 1
chrome31.0.1650.63 1 1
msie6.0 1 1
chrome56.0.2924.87 3 3
msie10.0 1 1
msie8.0 1 1
Unknown 63 0
END_BROWSER

# Screen size - Hits
BEGIN_SCREENSIZE 0
END_SCREENSIZE

# Unknown referer OS - Last visit date
BEGIN_UNKNOWNREFERER 1
COMODO_DCV 20170421212904
END_UNKNOWNREFERER

# Unknown referer Browser - Last visit date
BEGIN_UNKNOWNREFERERBROWSER 1
COMODO_DCV 20170421212904
END_UNKNOWNREFERERBROWSER

# Origin - Pages - Hits 
BEGIN_ORIGIN 6
From0 18 81
From1 1 1
From2 1 1
From3 0 0
From4 1 1
From5 0 0
END_ORIGIN

# Search engine referers ID - Pages - Hits
BEGIN_SEREFERRALS 1
bing 1 1
END_SEREFERRALS

# External page referers - Pages - Hits
# The 25 first Pages must be first (order not required for others)
BEGIN_PAGEREFS 0
END_PAGEREFS

# Search keyphrases - Number of search
# The 10 first number of search must be first (order not required for others)
BEGIN_SEARCHWORDS 0
END_SEARCHWORDS

# Search keywords - Number of search
# The 25 first number of search must be first (order not required for others)
BEGIN_KEYWORDS 0
END_KEYWORDS

# Errors - Hits - Bandwidth
BEGIN_ERRORS 1
404 9 0
END_ERRORS

# URL with 404 errors - Hits - Last URL referrer
BEGIN_SIDER_404 2
/robots.txt 5 -
/cgi-bin/ 4 http://upstconline.co.in/
END_SIDER_404

# Host - Pages - Hits - Bandwidth - Last visit date - [Start date of last visit] - [Last page of last visit]
# [Start date of last visit] and [Last page of last visit] are saved only if session is not finished
# The 25 first Hits must be first (order not required for others)
BEGIN_VISITOR 19
64.233.173.21 3 3 609 20170411030748
122.175.204.8 2 2 406 20170428064943
139.167.1.206 2 2 406 20170405105618
122.162.5.200 1 1 203 20170404073235
1.22.155.150 1 1 203 20170418023044
104.237.130.93 1 1 203 20170419192251
183.82.250.125 1 1 203 20170401125555
38.80.27.77 1 1 203 20170418023141
129.41.179.4 1 1 203 20170409211633
45.55.224.77 1 1 203 20170419150618
50.116.16.218 1 1 203 20170419224346
199.30.228.159 1 1 203 20170421040851
77.247.181.163 1 1 203 20170419153021
204.13.201.139 1 1 203 20170419150137
45.127.139.131 1 1 203 20170405021450
45.248.29.220 1 1 203 20170402053917
47.30.3.68 1 1 203 20170407100021
91.199.212.132 0 3 159 
173.208.194.130 0 60 3345 
END_VISITOR

# Date - Pages - Hits - Bandwidth - Visits
BEGIN_DAY 12
20170401 1 1 203 1
20170402 1 1 203 1
20170404 1 1 203 1
20170405 3 3 609 2
20170407 1 1 203 1
20170409 1 1 203 1
20170411 3 3 609 1
20170418 2 2 406 2
20170419 5 5 1015 5
20170420 0 27 1497 0
20170421 1 37 2210 1
20170428 2 2 406 1
END_DAY

# Session range - Number of visits
BEGIN_SESSION 2
30s-2mn 2
0s-30s 15
END_SESSION

# URL - Pages - Bandwidth - Entry - Exit
# The 25 first Pages must be first (order not required for others)
BEGIN_SIDER 1
/ 21 4263 17 17
END_SIDER
