AWSTATS DATA FILE 7.4 (build 20140726)
# If you remove this file, all statistics for date 201703 will be lost/reset.
# Last config file used to build this data file was /home/upstinnlineco/tmp/awstats/awstats.upstconline.co.in.conf.

# Position (offset in bytes) in this file for beginning of each section for
# direct I/O access. If you made changes somewhere in this file, you should
# also remove completely the MAP section (AWStats will rewrite it at next
# update).
BEGIN_MAP 28
POS_GENERAL 2019                
POS_TIME 2691                
POS_VISITOR 6082                
POS_DAY 6241                
POS_DOMAIN 3171                
POS_LOGIN 3415                
POS_ROBOT 3570                
POS_WORMS 3702                
POS_EMAILSENDER 3833                
POS_EMAILRECEIVER 3976                
POS_SESSION 6317                
POS_SIDER 6463                
POS_FILETYPES 4111                
POS_DOWNLOADS 4205                
POS_OS 4525                
POS_BROWSER 4613                
POS_SCREENSIZE 4692                
POS_UNKNOWNREFERER 4766                
POS_UNKNOWNREFERERBROWSER 4917                
POS_ORIGIN 5063                
POS_SEREFERRALS 5194                
POS_PAGEREFS 5338                
POS_SEARCHWORDS 5486                
POS_KEYWORDS 5638                
POS_MISC 2355                
POS_ERRORS 5697                
POS_CLUSTER 3271                
POS_SIDER_404 5773                
END_MAP

# LastLine    = Date of last record processed - Last record line number in last log - Last record offset in last log - Last record signature value
# FirstTime   = Date of first visit for history file
# LastTime    = Date of last visit for history file
# LastUpdate  = Date of last update - Nb of parsed records - Nb of parsed old records - Nb of parsed new records - Nb of parsed corrupted - Nb of parsed dropped
# TotalVisits = Number of visits
# TotalUnique = Number of unique visitors
# MonthHostsKnown   = Number of hosts known
# MonthHostsUnKnown = Number of hosts unknown
BEGIN_GENERAL 8
LastLine 20170401125555 1 0 10374930503005
FirstTime 20170328143729
LastTime 20170328143729
LastUpdate 20170402072344 1 0 0 0 0
TotalVisits 1                   
TotalUnique 1                   
MonthHostsKnown 0                   
MonthHostsUnknown 3                   
END_GENERAL

# Misc ID - Pages - Hits - Bandwidth
BEGIN_MISC 10
JavaEnabled 0 0 0
QuickTimeSupport 0 0 0
FlashSupport 0 0 0
RealPlayerSupport 0 0 0
DirectorSupport 0 0 0
PDFSupport 0 0 0
AddToFavourites 0 0 0
WindowsMediaPlayerSupport 0 0 0
TotalMisc 0 0 0
JavascriptDisabled 0 0 0
END_MISC

# Hour - Pages - Hits - Bandwidth - Not viewed Pages - Not viewed Hits - Not viewed Bandwidth
BEGIN_TIME 24
0 0 0 0 0 0 0
1 0 0 0 0 0 0
2 0 0 0 0 0 0
3 0 0 0 0 0 0
4 0 0 0 0 0 0
5 0 0 0 0 0 0
6 0 0 0 0 0 0
7 0 0 0 0 0 0
8 0 0 0 0 0 0
9 0 0 0 0 0 0
10 0 0 0 0 0 0
11 0 0 0 0 0 0
12 0 0 0 0 0 0
13 0 0 0 0 0 0
14 1 13 872 0 2 0
15 0 0 0 0 0 0
16 0 0 0 0 0 0
17 0 0 0 0 0 0
18 0 0 0 0 0 0
19 0 0 0 0 0 0
20 0 0 0 0 0 0
21 0 0 0 0 0 0
22 0 0 0 0 0 0
23 0 0 0 0 0 0
END_TIME

# Domain - Pages - Hits - Bandwidth
# The 25 first Pages must be first (order not required for others)
BEGIN_DOMAIN 3
in 1 1 203
us 0 9 510
gb 0 3 159
END_DOMAIN

# Cluster ID - Pages - Hits - Bandwidth
BEGIN_CLUSTER 0
END_CLUSTER

# Login - Pages - Hits - Bandwidth - Last visit
# The 10 first Pages must be first (order not required for others)
BEGIN_LOGIN 0
END_LOGIN

# Robot ID - Hits - Bandwidth - Last visit - Hits on robots.txt
# The 25 first Hits must be first (order not required for others)
BEGIN_ROBOT 0
END_ROBOT

# Worm ID - Hits - Bandwidth - Last visit
# The 5 first Hits must be first (order not required for others)
BEGIN_WORMS 0
END_WORMS

# EMail - Hits - Bandwidth - Last visit
# The 20 first Hits must be first (order not required for others)
BEGIN_EMAILSENDER 0
END_EMAILSENDER

# EMail - Hits - Bandwidth - Last visit
# The 20 first hits must be first (order not required for others)
BEGIN_EMAILRECEIVER 0
END_EMAILRECEIVER

# Files type - Hits - Bandwidth - Bandwidth without compression - Bandwidth after compression
BEGIN_FILETYPES 2
html 1 203 0 0
txt 12 669 0 0
END_FILETYPES

# Downloads - Hits - Bandwidth
BEGIN_DOWNLOADS 6
/40744E9D5448F517EB614704D9B7E22B.txt 6 0 318
/74165A5C60094BB4BC7A93FF90763864.txt 2 0 106
/605FC28E18DD0E2F72DC340CCC6E0B82.txt 1 0 64
/18EC2C0C20C19D008B288C14BFF43267.txt 1 0 53
/805DD1F137966EA7E4AA765486437471.txt 1 0 64
/2F54EF34B0496297A59D6453D6C9FD3D.txt 1 0 64
END_DOWNLOADS

# OS ID - Hits
BEGIN_OS ID - Hits - Pages 2
winnt 1 1
Unknown 12 0
END_OS

# Browser ID - Hits - Pages
BEGIN_BROWSER 2
Unknown 12 0
firefox52.0 1 1
END_BROWSER

# Screen size - Hits
BEGIN_SCREENSIZE 0
END_SCREENSIZE

# Unknown referer OS - Last visit date
BEGIN_UNKNOWNREFERER 2
COMODO_DCV 20170328143918
Cpanel-HTTP-Client/1.0 20170328143832
END_UNKNOWNREFERER

# Unknown referer Browser - Last visit date
BEGIN_UNKNOWNREFERERBROWSER 2
COMODO_DCV 20170328143918
Cpanel-HTTP-Client/1.0 20170328143832
END_UNKNOWNREFERERBROWSER

# Origin - Pages - Hits 
BEGIN_ORIGIN 6
From0 1 13
From1 0 0
From2 0 0
From3 0 0
From4 0 0
From5 0 0
END_ORIGIN

# Search engine referers ID - Pages - Hits
BEGIN_SEREFERRALS 0
END_SEREFERRALS

# External page referers - Pages - Hits
# The 25 first Pages must be first (order not required for others)
BEGIN_PAGEREFS 0
END_PAGEREFS

# Search keyphrases - Number of search
# The 10 first number of search must be first (order not required for others)
BEGIN_SEARCHWORDS 0
END_SEARCHWORDS

# Search keywords - Number of search
# The 25 first number of search must be first (order not required for others)
BEGIN_KEYWORDS 0
END_KEYWORDS

# Errors - Hits - Bandwidth
BEGIN_ERRORS 0
END_ERRORS

# URL with 404 errors - Hits - Last URL referrer
BEGIN_SIDER_404 0
END_SIDER_404

# Host - Pages - Hits - Bandwidth - Last visit date - [Start date of last visit] - [Last page of last visit]
# [Start date of last visit] and [Last page of last visit] are saved only if session is not finished
# The 25 first Hits must be first (order not required for others)
BEGIN_VISITOR 3
182.69.133.171 1 1 203 20170328143729
173.208.194.130 0 9 510 
91.199.212.132 0 3 159 
END_VISITOR

# Date - Pages - Hits - Bandwidth - Visits
BEGIN_DAY 1
20170328 1 13 872 1
END_DAY

# Session range - Number of visits
BEGIN_SESSION 1
0s-30s 1
END_SESSION

# URL - Pages - Bandwidth - Entry - Exit
# The 25 first Pages must be first (order not required for others)
BEGIN_SIDER 1
/ 1 203 1 1
END_SIDER
