AWSTATS DATA FILE 7.7 (build 20180105)
# If you remove this file, all statistics for date 201906 will be lost/reset.
# Last config file used to build this data file was /home/upstinnlineco/tmp/awstats/awstats.upstconline.co.in.conf.

# Position (offset in bytes) in this file for beginning of each section for
# direct I/O access. If you made changes somewhere in this file, you should
# also remove completely the MAP section (AWStats will rewrite it at next
# update).
BEGIN_MAP 28
POS_GENERAL 2019                
POS_TIME 2692                
POS_VISITOR 9329                
POS_DAY 12995               
POS_DOMAIN 3355                
POS_LOGIN 3699                
POS_ROBOT 3854                
POS_WORMS 4283                
POS_EMAILSENDER 4414                
POS_EMAILRECEIVER 4557                
POS_SESSION 13645               
POS_SIDER 13835               
POS_FILETYPES 4692                
POS_DOWNLOADS 4795                
POS_OS 4843                
POS_BROWSER 5046                
POS_SCREENSIZE 5690                
POS_UNKNOWNREFERER 5764                
POS_UNKNOWNREFERERBROWSER 6138                
POS_ORIGIN 6364                
POS_SEREFERRALS 6498                
POS_PAGEREFS 6661                
POS_SEARCHWORDS 6850                
POS_KEYWORDS 7002                
POS_MISC 2356                
POS_ERRORS 7061                
POS_CLUSTER 3555                
POS_SIDER_404 7167                
END_MAP

# LastLine    = Date of last record processed - Last record line number in last log - Last record offset in last log - Last record signature value
# FirstTime   = Date of first visit for history file
# LastTime    = Date of last visit for history file
# LastUpdate  = Date of last update - Nb of parsed records - Nb of parsed old records - Nb of parsed new records - Nb of parsed corrupted - Nb of parsed dropped
# TotalVisits = Number of visits
# TotalUnique = Number of unique visitors
# MonthHostsKnown   = Number of hosts known
# MonthHostsUnKnown = Number of hosts unknown
BEGIN_GENERAL 8
LastLine 20190701005949 7 897 4590181419985
FirstTime 20190601000227
LastTime 20190629222622
LastUpdate 20190701071133 7 0 6 0 0
TotalVisits 101                 
TotalUnique 96                  
MonthHostsKnown 0                   
MonthHostsUnknown 96                  
END_GENERAL

# Misc ID - Pages - Hits - Bandwidth
BEGIN_MISC 10
RealPlayerSupport 0 0 0
AddToFavourites 0 0 0
TotalMisc 0 0 0
WindowsMediaPlayerSupport 0 0 0
JavascriptDisabled 0 0 0
QuickTimeSupport 0 0 0
JavaEnabled 0 0 0
DirectorSupport 0 0 0
PDFSupport 0 0 0
FlashSupport 0 0 0
END_MISC

# Hour - Pages - Hits - Bandwidth - Not viewed Pages - Not viewed Hits - Not viewed Bandwidth
BEGIN_TIME 24
0 7 7 4361 5 9 38557
1 13 13 8099 9 15 3738
2 12 12 7476 12 20 5607
3 14 14 116893 16 25 42365
4 20 20 51196 9 17 39180
5 5 5 3115 4 7 1904
6 9 9 77737 43 48 39238
7 2 2 1246 11 16 3150
8 1 1 623 2 3 1246
9 0 0 0 6 10 39791
10 2 2 1246 6 12 2492
11 7 7 76491 18 25 10591
12 0 0 0 19 23 3738
13 2 2 1246 6 14 3738
14 1 1 623 9 16 5607
15 0 0 0 5 11 2492
16 1 1 623 9 16 5607
17 0 0 0 5 6 39180
18 0 0 0 10 16 6230
19 3 3 1869 22 29 8340
20 9 9 5607 8 18 41037
21 15 15 9345 13 22 6230
22 19 19 11837 13 20 41660
23 19 19 11837 4 10 1869
END_TIME

# Domain - Pages - Hits - Bandwidth
# The 25 first Pages must be first (order not required for others)
BEGIN_DOMAIN 10
us 106 106 210274
ca 12 12 7476
in 10 10 6230
cn 9 9 77737
fr 7 7 7044
gb 6 6 39791
eu 4 4 38557
ru 4 4 2492
it 2 2 1246
ie 1 1 623
END_DOMAIN

# Cluster ID - Pages - Hits - Bandwidth
BEGIN_CLUSTER 0
END_CLUSTER

# Login - Pages - Hits - Bandwidth - Last visit
# The 10 first Pages must be first (order not required for others)
BEGIN_LOGIN 0
END_LOGIN

# Robot ID - Hits - Bandwidth - Last visit - Hits on robots.txt
# The 25 first Hits must be first (order not required for others)
BEGIN_ROBOT 8
MJ12bot/ 43 26789 20190630212033 0
bot[\s_+:,\.\;\/\\-] 35 238159 20190629102129 0
Googlebot/ 32 19936 20190630021718 0
AhrefsBot/ 30 18690 20190630145336 0
Wget/ 11 78971 20190618113804 0
DomainCrawler/ 9 5607 20190608194238 0
spider 4 2492 20190626031630 0
no_user_agent 4 2492 20190620015145 0
END_ROBOT

# Worm ID - Hits - Bandwidth - Last visit
# The 5 first Hits must be first (order not required for others)
BEGIN_WORMS 0
END_WORMS

# EMail - Hits - Bandwidth - Last visit
# The 20 first Hits must be first (order not required for others)
BEGIN_EMAILSENDER 0
END_EMAILSENDER

# EMail - Hits - Bandwidth - Last visit
# The 20 first hits must be first (order not required for others)
BEGIN_EMAILRECEIVER 0
END_EMAILRECEIVER

# Files type - Hits - Bandwidth - Bandwidth without compression - Bandwidth after compression
BEGIN_FILETYPES 2
html 160 388164 0 0
Unknown 1 3306 0 0
END_FILETYPES

# Downloads - Hits - Bandwidth
BEGIN_DOWNLOADS 0
END_DOWNLOADS

# OS ID - Hits
BEGIN_OS ID - Hits - Pages 11
linux 9 9
win8.1 1 1
linuxandroid 12 12
win10 72 72
macosx 1 1
Unknown 39 39
winxp 1 1
macosx12 3 3
macosx11 9 9
macosx10 1 1
win7 13 13
END_OS

# Browser ID - Hits - Pages
BEGIN_BROWSER 31
safari9.0.2 1 1
firefox47.0 8 8
chrome75.0.3770.100 1 1
chrome63.0.3239.132 1 1
chrome66.0.3359.126 4 4
msie11.0 2 2
firefox64.0 1 1
firefox50.0 1 1
firefox59.0 1 1
firefox58.0 9 9
msie7.0 1 1
android 2 2
mozilla 14 14
chrome74.0.3729.157 1 1
Unknown 25 25
firefox52.0 1 1
firefox28.0 1 1
chrome59.0.3071.125 2 2
chrome74.0.3729.169 11 11
chrome64.0.3282.186 4 4
chrome73.0.3683.90 1 1
chrome45.0.2454.94 1 1
chrome75.0.3770.80 1 1
chrome40.0.2214.85 1 1
chrome74.0.3729.131 1 1
chrome47.0.2526.83 1 1
firefox65.0 1 1
firefox66.0 1 1
chrome66.0.3359.181 60 60
safari11.0.3 1 1
firefox42.0 1 1
END_BROWSER

# Screen size - Hits
BEGIN_SCREENSIZE 0
END_SCREENSIZE

# Unknown referer OS - Last visit date
BEGIN_UNKNOWNREFERER 6
python-requests/2.18.4 20190614033808
python-requests/2.22.0 20190620232205
Mozilla/5.0_(compatible;_Dataprovider.com) 20190626044506
Mozilla/5.0_(compatible;_NetcraftSurveyAgent/1.0;__info@netcraft.com) 20190606070139
Go-http-client/2.0 20190624202338
Go-http-client/1.1 20190629192928
END_UNKNOWNREFERER

# Unknown referer Browser - Last visit date
BEGIN_UNKNOWNREFERERBROWSER 4
Go-http-client/1.1 20190629192928
python-requests/2.22.0 20190620232205
python-requests/2.18.4 20190614033808
Go-http-client/2.0 20190624202338
END_UNKNOWNREFERERBROWSER

# Origin - Pages - Hits 
BEGIN_ORIGIN 6
From0 155 155
From1 1 1
From2 2 2
From3 1 1
From4 2 2
From5 0 0
END_ORIGIN

# Search engine referers ID - Pages - Hits
BEGIN_SEREFERRALS 1
www_google_com 2 2
END_SEREFERRALS

# External page referers - Pages - Hits
# The 25 first Pages must be first (order not required for others)
BEGIN_PAGEREFS 1
http://www.webdisk.upstconline.co.in 1 1
END_PAGEREFS

# Search keyphrases - Number of search
# The 10 first number of search must be first (order not required for others)
BEGIN_SEARCHWORDS 0
END_SEARCHWORDS

# Search keywords - Number of search
# The 25 first number of search must be first (order not required for others)
BEGIN_KEYWORDS 0
END_KEYWORDS

# Errors - Hits - Bandwidth
BEGIN_ERRORS 3
301 1 241
404 187 0
401 6 210
END_ERRORS

# URL with 404 errors - Hits - Last URL referrer
BEGIN_SIDER_404 61
/xmlrpc.php 2 -
/web/wp-includes/wlwmanifest.xml 1 -
/2019/wp-includes/wlwmanifest.xml 1 -
/templates/system/css/system.css 1 -
/shop/downloader/index.php 1 -
/wp2/wp-includes/wlwmanifest.xml 2 -
/site/wp-includes/wlwmanifest.xml 2 -
/main/wp-includes/wlwmanifest.xml 1 -
/ads.txt 1 -
/blogs/wp-includes/wlwmanifest.xml 1 -
/news/wp-includes/wlwmanifest.xml 1 -
/portal/wp-includes/wlwmanifest.xml 2 -
/cms/wp-includes/wlwmanifest.xml 2 -
/newsite/wp-includes/wlwmanifest.xml 1 -
/index.php/admin/ 1 -
/new/wp-includes/wlwmanifest.xml 1 -
/robots.txt 94 -
/test/wp-includes/wlwmanifest.xml 2 -
/,192.151.155.66 1 -
/.git/config 2 -
/store/index.php/admin/ 1 -
/en/wp-includes/wlwmanifest.xml 1 -
/wp/wp-includes/wlwmanifest.xml 2 -
/oldsite/wp-includes/wlwmanifest.xml 1 -
/demo/wp-includes/wlwmanifest.xml 1 -
/shop/wp-includes/wlwmanifest.xml 1 -
/blog/ 1 -
/beta/wp-includes/wlwmanifest.xml 1 -
/wp-includes/wlwmanifest.xml 2 -
/v1/wp-includes/wlwmanifest.xml 2 -
/admin/images/cal_date_over.gif 1 -
/backup/wp-includes/wlwmanifest.xml 1 -
/cgi-bin/ 10 -
/wp-login.php 9 -
//wp-login.php 3 -
/wp/ 1 -
/sitemap.xml 1 -
/store/wp-includes/wlwmanifest.xml 1 -
/blog/robots.txt 1 -
/home/wp-includes/wlwmanifest.xml 1 -
/downloader/index.php 1 -
/store/errors/503.php 1 -
/.env 2 -
/fckeditor/editor/filemanager/connectors/php/upload.php 1 -
/wordpress/wp-includes/wlwmanifest.xml 3 -
/store/downloader/index.php 1 -
/website/wp-includes/wlwmanifest.xml 1 -
/v2/wp-includes/wlwmanifest.xml 1 -
/staging/wp-includes/wlwmanifest.xml 1 -
/admin/login.php 1 -
/magento/downloader/index.php 1 -
/errors/503.php 1 -
/wordpress/ 1 -
/2018/wp-includes/wlwmanifest.xml 1 -
/magento/errors/503.php 1 -
/wp/wp-login.php 1 -
/magento/index.php/admin/ 1 -
/shop/index.php/admin/ 1 -
/user/register/ 1 -
/blog/wp-includes/wlwmanifest.xml 2 -
/shop/errors/503.php 1 -
END_SIDER_404

# Host - Pages - Hits - Bandwidth - Last visit date - [Start date of last visit] - [Last page of last visit]
# [Start date of last visit] and [Last page of last visit] are saved only if session is not finished
# The 25 first Hits must be first (order not required for others)
BEGIN_VISITOR 96
158.69.225.33 10 10 6230 20190626043035
60.191.38.77 8 8 77114 20190603025915
69.4.89.106 4 4 38545 20190614033801
93.119.227.91 4 4 38557 20190615062509
69.4.87.74 4 4 74610 20190614033803
64.233.173.18 3 3 1869 20190604061738
93.177.75.254 3 3 1869 20190601014921
163.53.254.197 3 3 1869 20190603110654
34.212.176.88 2 2 1246 20190606000609
18.236.155.12 2 2 1246 20190613223146
54.187.177.243 2 2 1246 20190619020609
34.222.152.119 2 2 1246 20190628015001
54.212.81.246 2 2 1246 20190629015515
54.149.167.56 2 2 1246 20190603005410
51.15.191.81 2 2 37299 20190615044120
34.217.65.207 2 2 1246 20190608020733
18.236.101.74 2 2 1246 20190610234901
54.214.104.80 2 2 1246 20190612210641
34.217.108.44 2 2 1246 20190623232124
54.189.164.22 2 2 1246 20190615021246
34.222.94.58 2 2 1246 20190626221039
34.220.156.189 2 2 1246 20190615224537
18.237.135.218 2 2 1246 20190625212246
18.236.211.110 2 2 1246 20190622235136
79.137.79.167 2 2 1246 20190614033808
51.83.110.147 1 1 623 20190620232205
122.179.212.18 1 1 623 20190615021920
54.201.118.237 1 1 623 20190623212704
159.203.118.139 1 1 623 20190606051611
122.49.28.44 1 1 623 20190601200645
35.166.239.57 1 1 623 20190626194844
51.254.121.158 1 1 623 20190615085055
206.180.165.147 1 1 623 20190628144818
185.234.219.246 1 1 623 20190621132110
34.221.229.9 1 1 623 20190617213508
54.218.219.190 1 1 623 20190604210826
35.165.181.198 1 1 623 20190626221041
66.96.214.58 1 1 623 20190619231352
14.98.30.162 1 1 623 20190616033521
35.165.117.4 1 1 623 20190620231446
34.209.4.82 1 1 623 20190607205821
54.213.46.86 1 1 623 20190624203038
51.77.246.67 1 1 623 20190626044506
47.8.219.18 1 1 623 20190617233203
34.219.225.167 1 1 623 20190629192928
117.201.56.113 1 1 623 20190613213516
34.220.51.145 1 1 623 20190622004239
122.163.161.57 1 1 623 20190607050500
62.210.201.91 1 1 3306 20190601045751
64.233.173.58 1 1 623 20190609033035
116.203.40.77 1 1 623 20190612191945
54.212.212.92 1 1 623 20190606202016
68.183.56.98 1 1 36688 20190606065438
62.4.14.206 1 1 623 20190615052216
34.218.245.133 2 2 1246 20190608225435
18.237.221.61 2 2 1246 20190604011722
54.69.59.41 2 2 1246 20190617224148
18.237.245.86 1 1 623 20190603222018
54.245.4.97 1 1 623 20190619202542
34.213.49.211 1 1 623 20190619202440
52.39.88.229 2 2 1246 20190620231644
52.89.24.232 1 1 623 20190618231614
51.158.121.89 1 1 623 20190614114631
52.34.218.123 2 2 1246 20190604224555
35.163.238.227 1 1 623 20190622231157
52.11.119.118 2 2 1246 20190616210610
134.209.38.118 1 1 623 20190606055204
52.33.217.140 2 2 1246 20190622022942
34.212.230.23 1 1 623 20190605214800
54.202.144.223 2 2 1246 20190601000227
54.193.124.164 1 1 623 20190606131543
34.220.1.22 1 1 623 20190606202013
54.218.149.30 1 1 623 20190627234306
34.209.212.65 1 1 623 20190624202338
54.218.141.234 2 2 1246 20190629222622
54.244.105.32 1 1 623 20190615224953
18.236.170.142 2 2 1246 20190602012636
64.233.173.19 1 1 623 20190604061719
54.189.17.78 1 1 623 20190625202640
212.83.146.233 2 2 1246 20190615043634
174.77.152.74 1 1 623 20190618113803
34.215.59.71 2 2 1246 20190619212141
34.222.42.88 2 2 1246 20190609235747
34.212.60.198 2 2 1246 20190612023156
62.4.14.198 1 1 623 20190615052157
34.221.176.51 2 2 1246 20190624215508
5.62.49.96 1 1 623 20190625074843
54.203.164.32 1 1 623 20190618230118
54.188.2.61 1 1 623 20190627231700
34.68.76.25 1 1 623 20190618162403
122.163.231.134 2 2 1246 20190611102210
34.219.247.209 2 2 1246 20190606224018
46.105.127.166 1 1 623 20190616011716
216.145.11.94 1 1 623 20190621041353
31.13.115.16 1 1 623 20190626045740
142.93.76.157 1 1 623 20190606070139
END_VISITOR

# Date - Pages - Hits - Bandwidth - Visits
BEGIN_DAY 29
20190601 7 7 7044 4
20190602 8 8 77114 3
20190603 8 8 4984 5
20190604 9 9 5607 5
20190605 1 1 623 1
20190606 11 11 42918 9
20190607 2 2 1246 2
20190608 4 4 2492 2
20190609 3 3 1869 2
20190610 2 2 1246 1
20190611 2 2 1246 1
20190612 5 5 3115 3
20190613 3 3 1869 2
20190614 11 11 115024 4
20190615 17 17 82709 12
20190616 4 4 2492 3
20190617 4 4 2492 3
20190618 4 4 2492 4
20190619 7 7 4361 5
20190620 4 4 2492 3
20190621 2 2 1246 2
20190622 6 6 3738 4
20190623 3 3 1869 2
20190624 4 4 2492 3
20190625 4 4 2492 3
20190626 16 16 9968 6
20190627 2 2 1246 2
20190628 3 3 1869 2
20190629 5 5 3115 3
END_DAY

# Session range - Number of visits
BEGIN_SESSION 5
5mn-15mn 2
30s-2mn 1
15mn-30mn 1
0s-30s 96
30mn-1h 1
END_SESSION

# URL - Pages - Bandwidth - Entry - Exit
# The 25 first Pages must be first (order not required for others)
BEGIN_SIDER 2
/ 160 388164 100 100
/resetpass 1 3306 1 1
END_SIDER
