AWSTATS DATA FILE 7.7 (build 20180105)
# If you remove this file, all statistics for date 201908 will be lost/reset.
# Last config file used to build this data file was /home/upstinnlineco/tmp/awstats/awstats.upstconline.co.in.conf.

# Position (offset in bytes) in this file for beginning of each section for
# direct I/O access. If you made changes somewhere in this file, you should
# also remove completely the MAP section (AWStats will rewrite it at next
# update).
BEGIN_MAP 28
POS_GENERAL 2019                
POS_TIME 2697                
POS_VISITOR 7474                
POS_DAY 11688               
POS_DOMAIN 3377                
POS_LOGIN 3720                
POS_ROBOT 3875                
POS_WORMS 4318                
POS_EMAILSENDER 4449                
POS_EMAILRECEIVER 4592                
POS_SESSION 12353               
POS_SIDER 12521               
POS_FILETYPES 4727                
POS_DOWNLOADS 4811                
POS_OS 4859                
POS_BROWSER 5074                
POS_SCREENSIZE 5617                
POS_UNKNOWNREFERER 5691                
POS_UNKNOWNREFERERBROWSER 5969                
POS_ORIGIN 6157                
POS_SEREFERRALS 6291                
POS_PAGEREFS 6435                
POS_SEARCHWORDS 6583                
POS_KEYWORDS 6735                
POS_MISC 2361                
POS_ERRORS 6794                
POS_CLUSTER 3576                
POS_SIDER_404 6891                
END_MAP

# LastLine    = Date of last record processed - Last record line number in last log - Last record offset in last log - Last record signature value
# FirstTime   = Date of first visit for history file
# LastTime    = Date of last visit for history file
# LastUpdate  = Date of last update - Nb of parsed records - Nb of parsed old records - Nb of parsed new records - Nb of parsed corrupted - Nb of parsed dropped
# TotalVisits = Number of visits
# TotalUnique = Number of unique visitors
# MonthHostsKnown   = Number of hosts known
# MonthHostsUnKnown = Number of hosts unknown
BEGIN_GENERAL 8
LastLine 20190901003739 20 2927 12217389058050
FirstTime 20190801053216
LastTime 20190831204852
LastUpdate 20190901072739 20 0 19 0 0
TotalVisits 118                 
TotalUnique 110                 
MonthHostsKnown 0                   
MonthHostsUnknown 110                 
END_GENERAL

# Misc ID - Pages - Hits - Bandwidth
BEGIN_MISC 10
PDFSupport 0 0 0
JavascriptDisabled 0 0 0
FlashSupport 0 0 0
DirectorSupport 0 0 0
AddToFavourites 0 0 0
RealPlayerSupport 0 0 0
QuickTimeSupport 0 0 0
WindowsMediaPlayerSupport 0 0 0
JavaEnabled 0 0 0
TotalMisc 0 0 0
END_MISC

# Hour - Pages - Hits - Bandwidth - Not viewed Pages - Not viewed Hits - Not viewed Bandwidth
BEGIN_TIME 24
0 5 5 3115 20 30 67761
1 6 6 39803 9 18 5607
2 9 9 5607 19 34 9415
3 24 24 267371 47 53 57515
4 1 1 623 15 22 63886
5 3 3 1869 7 13 3738
6 0 0 0 8 22 3738
7 2 2 1246 3 8 1869
8 1 1 623 15 23 65097
9 2 2 1246 10 19 5607
10 3 3 1869 1 4 623
11 1 1 623 20 27 104265
12 4 4 2492 8 13 3773
13 0 0 0 15 22 43564
14 3 3 1869 17 28 65097
15 5 5 3115 18 29 66343
16 6 6 39803 3 6 1281
17 2 2 1246 8 11 4396
18 4 4 2492 9 12 5607
19 25 25 15575 37 47 164448
20 25 25 15575 41 55 24593
21 8 8 4984 26 43 66953
22 16 16 46021 20 30 53063
23 14 14 76920 13 17 99316
END_TIME

# Domain - Pages - Hits - Bandwidth
# The 25 first Pages must be first (order not required for others)
BEGIN_DOMAIN 10
us 113 113 214647
cl 16 16 9968
de 11 11 75051
eu 9 9 149843
gb 7 7 4361
fr 7 7 76479
in 3 3 1869
ca 1 1 623
ru 1 1 623
au 1 1 623
END_DOMAIN

# Cluster ID - Pages - Hits - Bandwidth
BEGIN_CLUSTER 0
END_CLUSTER

# Login - Pages - Hits - Bandwidth - Last visit
# The 10 first Pages must be first (order not required for others)
BEGIN_LOGIN 0
END_LOGIN

# Robot ID - Hits - Bandwidth - Last visit - Hits on robots.txt
# The 25 first Hits must be first (order not required for others)
BEGIN_ROBOT 8
MJ12bot/ 215 695119 20190830221253 0
Googlebot/ 38 23674 20190831195430 0
bot[\s_+:,\.\;\/\\-] 30 198955 20190830184417 0
Wget/ 25 51628 20190829031705 0
AhrefsBot/ 23 14329 20190830154414 0
(firefox/)([0-9]\.|[0-1][0]\.) 2 1246 20190823194353 0
spider 2 1246 20190807021334 0
SafeDNSBot 1 623 20190822065302 0
END_ROBOT

# Worm ID - Hits - Bandwidth - Last visit
# The 5 first Hits must be first (order not required for others)
BEGIN_WORMS 0
END_WORMS

# EMail - Hits - Bandwidth - Last visit
# The 20 first Hits must be first (order not required for others)
BEGIN_EMAILSENDER 0
END_EMAILSENDER

# EMail - Hits - Bandwidth - Last visit
# The 20 first hits must be first (order not required for others)
BEGIN_EMAILRECEIVER 0
END_EMAILRECEIVER

# Files type - Hits - Bandwidth - Bandwidth without compression - Bandwidth after compression
BEGIN_FILETYPES 1
html 169 534087 0 0
END_FILETYPES

# Downloads - Hits - Bandwidth
BEGIN_DOWNLOADS 0
END_DOWNLOADS

# OS ID - Hits
BEGIN_OS ID - Hits - Pages 12
ios_iphone 3 3
linuxandroid 4 4
winlong 5 5
macosx12 5 5
linux 9 9
macosx8 1 1
win7 9 9
Unknown 54 54
macosx 5 5
macosx10 2 2
win10 66 66
win8.1 6 6
END_OS

# Browser ID - Hits - Pages
BEGIN_BROWSER 26
chrome73.0.3683.86 1 1
firefox59.0 2 2
android 1 1
chrome69.0.3497.100 1 1
chrome66.0.3359.181 58 58
msie11.0 4 4
firefox63.0 2 2
safari12.1.2 1 1
safari12.1.1 1 1
opera53.0.2907.68 1 1
safari11.0.3 4 4
chrome67.0.3396.87 1 1
opera43.0.2442.991 5 5
mozilla 5 5
firefox62.0 1 1
chrome74.0.3729.131 1 1
firefox58.0 13 13
chrome76.0.3809.89 1 1
Unknown 49 49
edge16 2 2
chrome59.0.3071.125 1 1
chrome64.0.3282.186 2 2
chrome26.0.1410.65 1 1
chrome40.0.2214.85 7 7
firefox68.0 2 2
safari10.0 2 2
END_BROWSER

# Screen size - Hits
BEGIN_SCREENSIZE 0
END_SCREENSIZE

# Unknown referer OS - Last visit date
BEGIN_UNKNOWNREFERER 4
Go-http-client/2.0 20190827192748
Mozilla/5.0_(compatible;_NetcraftSurveyAgent/1.0;__info@netcraft.com) 20190806021556
Go-http-client/1.1 20190831192902
python-requests/2.22.0 20190817162319
END_UNKNOWNREFERER

# Unknown referer Browser - Last visit date
BEGIN_UNKNOWNREFERERBROWSER 3
python-requests/2.22.0 20190817162319
Go-http-client/2.0 20190827192748
Go-http-client/1.1 20190831192902
END_UNKNOWNREFERERBROWSER

# Origin - Pages - Hits 
BEGIN_ORIGIN 6
From0 167 167
From1 0 0
From2 0 0
From3 0 0
From4 2 2
From5 0 0
END_ORIGIN

# Search engine referers ID - Pages - Hits
BEGIN_SEREFERRALS 0
END_SEREFERRALS

# External page referers - Pages - Hits
# The 25 first Pages must be first (order not required for others)
BEGIN_PAGEREFS 0
END_PAGEREFS

# Search keyphrases - Number of search
# The 10 first number of search must be first (order not required for others)
BEGIN_SEARCHWORDS 0
END_SEARCHWORDS

# Search keywords - Number of search
# The 25 first number of search must be first (order not required for others)
BEGIN_KEYWORDS 0
END_KEYWORDS

# Errors - Hits - Bandwidth
BEGIN_ERRORS 2
404 179 0
401 21 735
END_ERRORS

# URL with 404 errors - Hits - Last URL referrer
BEGIN_SIDER_404 13
/cgi-bin/ 9 -
/admin/login.php 1 -
/administrator/index.php 1 -
/admin/ 1 -
/.git/HEAD 2 -
/.well-known/assetlinks.json 1 -
/xmlrpc.php 1 -
/robots.txt 147 -
//xmlrpc.php 1 http://www.google.com.hk
/wp-login.php 10 -
/admin/index.php 1 -
/update.php 1 -
//wp-login.php 3 -
END_SIDER_404

# Host - Pages - Hits - Bandwidth - Last visit date - [Start date of last visit] - [Last page of last visit]
# [Start date of last visit] and [Last page of last visit] are saved only if session is not finished
# The 25 first Hits must be first (order not required for others)
BEGIN_VISITOR 110
93.119.227.19 5 5 75233 20190829034917
134.255.238.78 5 5 3115 20190824025906
138.246.253.5 5 5 71313 20190823051732
69.4.89.106 5 5 75233 20190829031649
93.119.227.91 4 4 74610 20190829031705
69.4.87.74 4 4 38557 20190829031703
54.187.115.105 4 4 2492 20190807203801
212.83.146.233 4 4 38557 20190830180134
51.83.91.135 3 3 1869 20190817000344
52.43.197.244 2 2 1246 20190805203710
34.221.43.213 2 2 1246 20190811204509
34.215.22.55 2 2 1246 20190809225706
18.237.190.187 2 2 1246 20190808212141
52.41.30.239 2 2 1246 20190818224513
18.236.208.21 2 2 1246 20190829225221
51.15.191.81 2 2 1246 20190830180123
52.88.18.140 2 2 1246 20190810203842
54.202.79.146 2 2 1246 20190814120521
35.164.68.252 2 2 1246 20190806231931
54.149.176.153 2 2 1246 20190802001518
34.214.127.96 2 2 1246 20190831000321
18.237.11.104 2 2 1246 20190820231834
34.211.120.44 2 2 1246 20190823203553
35.160.230.222 2 2 1246 20190825231818
52.34.176.161 2 2 1246 20190828205812
38.131.159.45 1 1 623 20190807211255
54.213.212.13 1 1 623 20190827124258
34.217.112.173 1 1 623 20190823193759
167.99.115.179 1 1 623 20190806014959
193.148.19.188 1 1 623 20190809053252
181.214.184.112 1 1 623 20190809221526
38.131.153.161 1 1 623 20190811194611
34.209.182.80 1 1 623 20190817194110
54.149.122.166 1 1 623 20190819194209
181.214.36.78 1 1 623 20190801210808
191.96.241.251 1 1 623 20190807194058
181.214.187.15 1 1 623 20190804214107
128.199.203.245 1 1 623 20190803074532
185.2.196.196 1 1 623 20190807022426
35.162.165.31 1 1 623 20190820221154
181.215.81.152 1 1 623 20190803214222
52.37.63.18 1 1 623 20190819194217
103.240.193.1 1 1 623 20190817080505
54.188.106.36 1 1 623 20190825221849
195.154.61.206 1 1 623 20190830161028
45.86.247.106 1 1 623 20190804103430
181.215.64.139 1 1 623 20190812214146
69.171.251.21 1 1 623 20190831034555
13.231.131.205 1 1 623 20190831112317
139.167.54.50 1 1 623 20190813120115
54.218.253.48 1 1 623 20190826194641
34.217.117.144 1 1 623 20190817194115
52.11.240.116 1 1 623 20190823193804
64.246.165.10 1 1 623 20190804153857
167.71.97.4 1 1 623 20190806013917
54.191.174.185 1 1 623 20190821193826
54.244.214.228 1 1 623 20190822194633
125.22.33.130 1 1 623 20190812010714
181.215.75.83 1 1 623 20190810193957
34.217.149.18 1 1 623 20190818221443
45.86.245.113 1 1 623 20190809221525
38.131.159.196 1 1 623 20190806141102
207.102.138.11 1 1 623 20190829173759
34.222.45.143 1 1 623 20190829202830
18.237.227.235 2 2 1246 20190827201546
18.237.145.8 1 1 623 20190827192748
18.237.51.247 1 1 623 20190831192902
51.254.121.158 1 1 623 20190822024559
64.246.165.210 1 1 623 20190826103418
34.217.111.239 1 1 623 20190822194626
18.237.147.128 2 2 1246 20190816033917
167.71.81.138 1 1 36688 20190806014539
178.162.208.155 1 1 623 20190818153841
34.214.28.45 2 2 1246 20190831204852
34.224.57.146 2 2 1246 20190829031656
67.227.97.78 1 1 623 20190808193910
45.82.49.192 1 1 623 20190811194521
54.190.46.188 1 1 623 20190824232943
54.202.239.87 1 1 623 20190824232939
181.215.204.86 1 1 623 20190802180654
38.131.159.111 1 1 623 20190803151645
66.249.137.0 1 1 623 20190808194325
34.67.63.199 1 1 623 20190817162319
181.215.217.180 1 1 623 20190801181820
122.180.171.107 1 1 623 20190818094244
45.40.120.167 1 1 623 20190805093411
181.215.85.142 1 1 623 20190803073925
167.71.82.126 1 1 623 20190803041525
34.220.255.34 2 2 1246 20190817201346
35.163.22.3 2 2 1246 20190822194853
54.200.154.3 2 2 1246 20190816223912
157.34.170.27 1 1 623 20190820103722
54.202.170.131 1 1 623 20190827192749
191.96.41.52 1 1 623 20190807030333
181.215.205.244 1 1 623 20190802144504
62.4.14.198 1 1 36676 20190830235821
54.245.11.26 2 2 1246 20190804231801
54.149.122.62 1 1 623 20190828193717
54.214.142.38 2 2 1246 20190819203133
34.212.227.39 2 2 1246 20190802231134
45.40.122.195 1 1 623 20190806141450
181.215.77.105 1 1 623 20190813222232
129.78.110.131 1 1 623 20190801053216
181.215.76.157 1 1 623 20190810194348
54.212.109.183 2 2 1246 20190813165632
52.12.249.57 2 2 1246 20190826203532
167.99.113.21 1 1 623 20190806021556
181.214.184.116 1 1 623 20190812215130
181.215.81.153 1 1 623 20190813222234
34.221.157.98 2 2 1246 20190825013942
END_VISITOR

# Date - Pages - Hits - Bandwidth - Visits
BEGIN_DAY 30
20190801 5 5 3115 4
20190802 6 6 3738 4
20190803 7 7 4361 6
20190804 5 5 3115 4
20190805 3 3 1869 2
20190806 8 8 41049 7
20190807 6 6 3738 5
20190808 4 4 2492 3
20190809 5 5 3115 4
20190810 4 4 2492 3
20190811 4 4 2492 3
20190812 3 3 1869 3
20190813 5 5 3115 4
20190814 2 2 1246 1
20190816 4 4 2492 2
20190817 7 7 4361 6
20190818 5 5 3115 4
20190819 5 5 3115 4
20190820 5 5 39168 4
20190821 3 3 34014 3
20190822 5 5 3115 4
20190823 5 5 3115 4
20190824 7 7 4361 3
20190825 5 5 3115 3
20190826 4 4 2492 3
20190827 5 5 3115 4
20190828 3 3 1869 2
20190829 24 24 267371 8
20190830 8 8 77102 6
20190831 7 7 4361 5
END_DAY

# Session range - Number of visits
BEGIN_SESSION 3
30mn-1h 1
0s-30s 116
30s-2mn 1
END_SESSION

# URL - Pages - Bandwidth - Entry - Exit
# The 25 first Pages must be first (order not required for others)
BEGIN_SIDER 2
/ 168 533464 117 117
// 1 623 1 1
END_SIDER
