AWSTATS DATA FILE 7.6 (build 20161204)
# If you remove this file, all statistics for date 201809 will be lost/reset.
# Last config file used to build this data file was /home/upstinnlineco/tmp/awstats/awstats.upstconline.co.in.conf.

# Position (offset in bytes) in this file for beginning of each section for
# direct I/O access. If you made changes somewhere in this file, you should
# also remove completely the MAP section (AWStats will rewrite it at next
# update).
BEGIN_MAP 28
POS_GENERAL 2019                
POS_TIME 2693                
POS_VISITOR 14241               
POS_DAY 14358               
POS_DOMAIN 3318                
POS_LOGIN 3547                
POS_ROBOT 3702                
POS_WORMS 4017                
POS_EMAILSENDER 4148                
POS_EMAILRECEIVER 4291                
POS_SESSION 15026               
POS_SIDER 15222               
POS_FILETYPES 4426                
POS_DOWNLOADS 4510                
POS_OS 4558                
POS_BROWSER 4730                
POS_SCREENSIZE 5223                
POS_UNKNOWNREFERER 5297                
POS_UNKNOWNREFERERBROWSER 5559                
POS_ORIGIN 5673                
POS_SEREFERRALS 5807                
POS_PAGEREFS 5951                
POS_SEARCHWORDS 6099                
POS_KEYWORDS 6251                
POS_MISC 2357                
POS_ERRORS 6310                
POS_CLUSTER 3403                
POS_SIDER_404 6396                
END_MAP

# LastLine    = Date of last record processed - Last record line number in last log - Last record offset in last log - Last record signature value
# FirstTime   = Date of first visit for history file
# LastTime    = Date of last visit for history file
# LastUpdate  = Date of last update - Nb of parsed records - Nb of parsed old records - Nb of parsed new records - Nb of parsed corrupted - Nb of parsed dropped
# TotalVisits = Number of visits
# TotalUnique = Number of unique visitors
# MonthHostsKnown   = Number of hosts known
# MonthHostsUnKnown = Number of hosts unknown
BEGIN_GENERAL 8
LastLine 20181001003158 3 402 10802823929971
FirstTime 20180901060634
LastTime 20180930233911
LastUpdate 20181001070844 3 0 2 0 0
TotalVisits 96                  
TotalUnique 1                   
MonthHostsKnown 0                   
MonthHostsUnknown 1                   
END_GENERAL

# Misc ID - Pages - Hits - Bandwidth
BEGIN_MISC 10
TotalMisc 0 0 0
JavascriptDisabled 0 0 0
AddToFavourites 0 0 0
JavaEnabled 0 0 0
PDFSupport 0 0 0
WindowsMediaPlayerSupport 0 0 0
FlashSupport 0 0 0
DirectorSupport 0 0 0
QuickTimeSupport 0 0 0
RealPlayerSupport 0 0 0
END_MISC

# Hour - Pages - Hits - Bandwidth - Not viewed Pages - Not viewed Hits - Not viewed Bandwidth
BEGIN_TIME 24
0 17 17 10591 2 4 1308
1 10 10 6230 3 8 1869
2 18 18 11214 11 106 7445
3 6 6 3738 3 6 0
4 3 3 1869 1 5 623
5 22 22 13706 10 19 4361
6 4 4 2492 4 8 1246
7 2 2 1246 29 37 19821
8 2 2 1246 6 8 1246
9 2 2 1246 2 6 623
10 3 3 1869 3 6 1869
11 10 10 6230 1 6 623
12 9 9 5607 3 5 0
13 3 3 1869 0 2 0
14 2 2 1246 2 5 1246
15 0 0 0 3 4 1246
16 3 3 1869 1 4 623
17 1 1 623 3 4 623
18 3 3 1869 21 25 1869
19 1 1 623 5 5 0
20 2 2 1246 7 12 1869
21 4 4 2492 1 2 623
22 20 20 12460 1 3 0
23 45 45 28035 2 4 1246
END_TIME

# Domain - Pages - Hits - Bandwidth
# The 25 first Pages must be first (order not required for others)
BEGIN_DOMAIN 1
us 192 192 119616
END_DOMAIN

# Cluster ID - Pages - Hits - Bandwidth
BEGIN_CLUSTER 0
END_CLUSTER

# Login - Pages - Hits - Bandwidth - Last visit
# The 10 first Pages must be first (order not required for others)
BEGIN_LOGIN 0
END_LOGIN

# Robot ID - Hits - Bandwidth - Last visit - Hits on robots.txt
# The 25 first Hits must be first (order not required for others)
BEGIN_ROBOT 5
MJ12bot/ 37 26705 20180927024051 0
Googlebot/ 30 18690 20180929171424 0
Wget/ 6 3738 20180919052602 0
facebookexternalhit/ 1 623 20180929071019 0
no_user_agent 1 623 20180924183505 0
END_ROBOT

# Worm ID - Hits - Bandwidth - Last visit
# The 5 first Hits must be first (order not required for others)
BEGIN_WORMS 0
END_WORMS

# EMail - Hits - Bandwidth - Last visit
# The 20 first Hits must be first (order not required for others)
BEGIN_EMAILSENDER 0
END_EMAILSENDER

# EMail - Hits - Bandwidth - Last visit
# The 20 first hits must be first (order not required for others)
BEGIN_EMAILRECEIVER 0
END_EMAILRECEIVER

# Files type - Hits - Bandwidth - Bandwidth without compression - Bandwidth after compression
BEGIN_FILETYPES 1
html 192 119616 0 0
END_FILETYPES

# Downloads - Hits - Bandwidth
BEGIN_DOWNLOADS 0
END_DOWNLOADS

# OS ID - Hits
BEGIN_OS ID - Hits - Pages 8
Unknown 13 13
win10 112 112
macosx12 30 30
macosx 1 1
macosx10 2 2
linux 3 3
win7 13 13
linuxandroid 18 18
END_OS

# Browser ID - Hits - Pages
BEGIN_BROWSER 21
chrome61.0.3163.100 25 25
chrome38.0.1025.166 3 3
chrome68.0.3440.85 3 3
chrome59.0.3071.125 1 1
chrome60.0.3112.101 2 2
chrome40.0.2214.85 11 11
Unknown 2 2
chrome 1 1
firefox58.0 1 1
chrome66.0.3359.181 107 107
firefox62.0 3 3
firefox59.0 2 2
chrome62.0.3202.84 5 5
chrome68.0.3440.106 2 2
chrome60.0.3112.113 1 1
chrome41.0.2272.118 2 2
chrome45.0.2454.94 1 1
safari11.0.3 1 1
mozilla 11 11
chrome61.0.3163.128 2 2
chrome64.0.3282.186 6 6
END_BROWSER

# Screen size - Hits
BEGIN_SCREENSIZE 0
END_SCREENSIZE

# Unknown referer OS - Last visit date
BEGIN_UNKNOWNREFERER 3
Chromeless_1.5.2 20180910214754
Mozilla/5.0_(compatible;_NetcraftSurveyAgent/1.0;__info@netcraft.com) 20180909030848
Mozilla/5.0_(compatible;_Dataprovider.com) 20180923050751
END_UNKNOWNREFERER

# Unknown referer Browser - Last visit date
BEGIN_UNKNOWNREFERERBROWSER 1
Chromeless_1.5.2 20180910214754
END_UNKNOWNREFERERBROWSER

# Origin - Pages - Hits 
BEGIN_ORIGIN 6
From0 192 192
From1 0 0
From2 0 0
From3 0 0
From4 0 0
From5 0 0
END_ORIGIN

# Search engine referers ID - Pages - Hits
BEGIN_SEREFERRALS 0
END_SEREFERRALS

# External page referers - Pages - Hits
# The 25 first Pages must be first (order not required for others)
BEGIN_PAGEREFS 0
END_PAGEREFS

# Search keyphrases - Number of search
# The 10 first number of search must be first (order not required for others)
BEGIN_SEARCHWORDS 0
END_SEARCHWORDS

# Search keywords - Number of search
# The 25 first number of search must be first (order not required for others)
BEGIN_KEYWORDS 0
END_KEYWORDS

# Errors - Hits - Bandwidth
BEGIN_ERRORS 1
404 185 0
END_ERRORS

# URL with 404 errors - Hits - Last URL referrer
BEGIN_SIDER_404 115
/modules/fckeditor/fckeditor/editor/filemanager/connectors/uploadtest.html 1 -
/.well-known/pki-validation/65657A11F6DDFD60C3D6C5C9FA0E5B83.txt 1 -
/.well-known/pki-validation/7DB8BF15BDED67305F311B7A5E3D8438.txt 1 -
/.well-known/pki-validation/955596987E9C8D6C1F6D4E38E77C8300.txt 1 -
/wp-login.php 19 http://upstconline.co.in/wp-login.php
/.well-known/pki-validation/91786E73212318E3C495B479641683F1.txt 1 -
/.well-known/pki-validation/E386D43F682EBD9E6FC8C6588DA1380E.txt 1 -
/.well-known/pki-validation/F8D28CC8530A13FA053679D93CAC8617.txt 1 -
/.well-known/pki-validation/C60631A8E1BD3B4F78C0FCC202EBDA65.txt 1 -
/.well-known/pki-validation/867819FA63890F51F7FB769527C8BA10.txt 1 -
/.well-known/pki-validation/EF66276471BEADC2E57EB45728102B18.txt 1 -
/.well-known/pki-validation/72BF1238DF5F8BB8B157B3C761765708.txt 1 -
/.well-known/pki-validation/8247868AE14DDB8060EC5612FB9A2AEB.txt 1 -
/.well-known/pki-validation/E98C7B552B2E6E12A56E95BA109ADB47.txt 1 -
/.well-known/pki-validation/F3FA701367925E8B3BB890163FD689C0.txt 1 -
/.well-known/pki-validation/7FA1634F00DF0789D918C48545BBDA42.txt 1 -
/.well-known/pki-validation/1BD72E3A2B90581AEC6AB3BE8F3742B4.txt 1 -
/.well-known/pki-validation/0343FF0401FA5C5B71DC6569B23057B7.txt 1 -
/.well-known/pki-validation/4A7BC13CE77D459D0B69C2F26E8765DE.txt 1 -
/.well-known/pki-validation/1A9EA55E7804C4DCB383037337F136A8.txt 1 -
/.well-known/pki-validation/AFC40AEDA4E2B84C733A7160A35E44EA.txt 1 -
/.well-known/pki-validation/14A451F89F515FD7FF51CF749204F0C2.txt 1 -
/.well-known/pki-validation/68BEF81DDF34897403875AF7B1078E9C.txt 1 -
/.well-known/pki-validation/3E10D55FD89A1E9D2A0DC94F7407D683.txt 1 -
/.well-known/pki-validation/8F748C290A3C683E4BDE6B5A9B61FD4B.txt 1 -
/.well-known/assetlinks.json 5 -
/editor/filemanager/connectors/uploadtest.html 1 -
/admin/FCKeditor/editor/filemanager/connectors/uploadtest.html 1 -
/js/fckeditor/editor/filemanager/connectors/uploadtest.html 1 -
/.well-known/pki-validation/3B64F21BB166490A6A69A1E7681603EB.txt 1 -
/.well-known/pki-validation/5C67584FC41250A7C28E4083C505ECFA.txt 1 -
/.well-known/pki-validation/E3BAF4AB09715F81CB8F4D343F81EBD0.txt 1 -
/.well-known/pki-validation/580DE8D82D9B3DFF873F4C7D0C675772.txt 1 -
/.well-known/pki-validation/5A31AE71B280D0DDFA5D069BCC33A3A6.txt 1 -
/.well-known/pki-validation/971DAE7354B195CD433EC9B0F4C04B36.txt 1 -
/cms/editor/filemanager/connectors/uploadtest.html 1 -
/.well-known/pki-validation/2B28BC2AA6DD41E792EDC642694FDA35.txt 1 -
/.well-known/pki-validation/FCE30E39FBBA0EFC22F8115A8C06EA0D.txt 1 -
/sitemap.xml 1 -
/.well-known/pki-validation/8C0D7B5FE41EF444AE57671B39232B06.txt 1 -
/sites/all/modules/fckeditor/fckeditor/editor/filemanager/connectors/uploadtest.html 1 -
/.well-known/pki-validation/1FD29FC2A4FA3B075B872FB793B4125C.txt 1 -
/.well-known/pki-validation/E9FCEBD25690496489FF21F60C354916.txt 1 -
/.well-known/pki-validation/AC0462CD530CA558511E3F735E6390A2.txt 1 -
/.well-known/pki-validation/B922E514B9F624CE78F6C22558EE983F.txt 1 -
/.well-known/pki-validation/069A5F0A25E4DCE54A3F47747DD871FC.txt 1 -
/.well-known/pki-validation/A212DBA5E861B08FE67A3C741D58EAB4.txt 1 -
/.well-known/pki-validation/109D2BF5F05FE1D1CAA69E8F4F127305.txt 1 -
/.well-known/pki-validation/881684078EEAF5A6742907AABC755781.txt 1 -
/.well-known/pki-validation/EE82DB6B92EFED23D812EF6179498F0C.txt 1 -
/wysiwyg/fckeditor/editor/filemanager/connectors/uploadtest.html 1 -
/.well-known/pki-validation/8A412081F1AE238072BD9248A9E412DF.txt 1 -
/.well-known/pki-validation/A12CA7D6D9985753A6F4F65ECEC34556.txt 1 -
/.well-known/pki-validation/FA2DDF9EE17CBF441AF6716BD8643B0F.txt 1 -
/robots.txt 45 -
/.well-known/pki-validation/12C571282A1F0311691D1BE6B74D844A.txt 1 -
/ckeditor/filemanager/connectors/uploadtest.html 1 -
/.well-known/pki-validation/7B13D3A979932719B9714CC8F1D9926E.txt 1 -
/.well-known/pki-validation/06327223A2102A8050F8B1728A96CF9D.txt 1 -
/admin/editor/editor/filemanager/connectors/uploadtest.html 1 -
/HTMLEditor/editor/filemanager/connectors/uploadtest.html 1 -
/.well-known/pki-validation/9B9C9A8FE9170DDF6F79664855A6AEBA.txt 1 -
/.well-known/pki-validation/500C887CE9E29F4FAB98051884D3C112.txt 1 -
/.well-known/pki-validation/E45112F88228A73C6146F59C2367356E.txt 1 -
/.well-known/pki-validation/2A988A503AD7AF05810983BDC9F6DC3D.txt 1 -
/.well-known/pki-validation/83FBA1E837C50F285D83984BC9690D90.txt 1 -
/.well-known/pki-validation/2DADDEAA9357C31F8C3432345491B8F9.txt 1 -
/.well-known/pki-validation/19166BC9D620CB8AE87C94E38E14ED26.txt 1 -
/editor/editor/filemanager/upload/test.html 1 -
/.well-known/pki-validation/CA55C163BF343BE5E6F0457E70192A59.txt 1 -
/.well-known/pki-validation/6D54D63B8CAFBF807B589CF7314CF324.txt 1 -
/.well-known/pki-validation/8D295601F10ED28F1A1BA240BB9F181F.txt 1 -
/.well-known/pki-validation/C9DA89784552AF41F3ACA38F67496593.txt 1 -
/.well-known/pki-validation/48F863EFF229DD5ACD1B49AE2FC1AEEF.txt 1 -
/.well-known/pki-validation/3EFC8088D71298D1F17EC5489D7056A7.txt 1 -
/.well-known/pki-validation/974729263E9AD83FE75A52FAE72CA5DD.txt 1 -
/.well-known/pki-validation/5427EA5780D537A55CFEAB67F9F10240.txt 1 -
/editor/editor/filemanager/connectors/uploadtest.html 1 -
/.well-known/pki-validation/2FDF8C623E71B68806013913CAADDE2D.txt 1 -
/.well-known/pki-validation/4D3D06F9FAB76BB3978C9619A6FDB50F.txt 1 -
/ads.txt 1 -
/.well-known/pki-validation/A0CC6E920A19BEE303E334687F183FF0.txt 1 -
/cgi-bin/ 4 -
/.well-known/pki-validation/BCF6E1A2F761EB6E62612A59C6EF2CF3.txt 1 -
/.well-known/pki-validation/BD82F596B210575DA94E93128F50306F.txt 1 -
/.well-known/pki-validation/43CB21CB6F446A3E09C53AAE99BF2331.txt 1 -
/.well-known/pki-validation/776D55EA023CAC9E8EB20537429CED69.txt 1 -
/administrator/fckeditor/editor/filemanager/connectors/uploadtest.html 1 -
/.well-known/pki-validation/2E3DA4CBFE5DEF1916643D8DA7935FDB.txt 1 -
/.well-known/pki-validation/DDF969F002476FC26F7922D232F17B7F.txt 1 -
/.well-known/pki-validation/4E51BB5C8D570230E53AFB73E4F15D17.txt 1 -
/.well-known/pki-validation/1C3587377CF92C443C833DE034D19EDE.txt 1 -
//wp-login.php 2 -
/.well-known/pki-validation/01A8F62ABDC5CD035D1A46EB7F164E9D.txt 1 -
/.well-known/pki-validation/D12A41AF6A17CA357BF25DF16AA8D5DD.txt 1 -
/.well-known/pki-validation/30438CE60BBDECC530A372E2396CD6DE.txt 1 -
/.well-known/pki-validation/75E40D5CC70D047E413E26BC5E86C0E3.txt 1 -
/.well-known/pki-validation/C4C00E6076790D81E217A950EDD52418.txt 1 -
/.well-known/pki-validation/03D5AB8B79DFC030593273B30CE8642B.txt 1 -
/admin/editor/filemanager/connectors/uploadtest.html 1 -
/fckeditor/editor/filemanager/connectors/uploadtest.html 1 -
/.well-known/pki-validation/3DE3FD0A21B434B1A8EA84FE3F4032EC.txt 1 -
/.well-known/pki-validation/AC7B02896F4C675297C80830521900DD.txt 1 -
/.well-known/pki-validation/01B6A46B1E465732F398D4BD7DAEED3D.txt 1 -
/.well-known/pki-validation/34F298BB1A332B8BB94CA84898D16B48.txt 1 -
/plugins/p_fckeditor/fckeditor/editor/filemanager/connectors/uploadtest.html 1 -
/.well-known/pki-validation/E86C4B4429B0F7E7E7CFF75628993605.txt 1 -
/.well-known/pki-validation/C403A86FABB9600CFDE2071CED554AD4.txt 1 -
/.well-known/pki-validation/631A6797B9595ADE0BC7BDF8D2BE991C.txt 1 -
/.well-known/pki-validation/F53D009B11A87B4166C3D843DD68DA99.txt 1 -
/cms/editor/filemanager/connectors/uploadtest404.html 1 -
/cms/fckeditor/editor/filemanager/connectors/uploadtest.html 1 -
/.well-known/pki-validation/8FC24F842CC8B7FBC36E9B18BB22A912.txt 1 -
/.well-known/pki-validation/184D1C8909E4674A404A68C3F3937030.txt 1 -
/.well-known/pki-validation/BF0A7901483B7DF579883536A609FCC1.txt 1 -
END_SIDER_404

# Host - Pages - Hits - Bandwidth - Last visit date - [Start date of last visit] - [Last page of last visit]
# [Start date of last visit] and [Last page of last visit] are saved only if session is not finished
# The 25 first Hits must be first (order not required for others)
BEGIN_VISITOR 1
192.151.155.66 192 192 119616 20180930233911
END_VISITOR

# Date - Pages - Hits - Bandwidth - Visits
BEGIN_DAY 30
20180901 4 4 2492 2
20180902 3 3 1869 3
20180903 4 4 2492 2
20180904 1 1 623 1
20180905 6 6 3738 4
20180906 4 4 2492 3
20180907 3 3 1869 2
20180908 4 4 2492 3
20180909 10 10 6230 4
20180910 7 7 4361 3
20180911 4 4 2492 2
20180912 13 13 8099 4
20180913 9 9 5607 6
20180914 5 5 3115 2
20180915 7 7 4361 4
20180916 4 4 2492 3
20180917 7 7 4361 3
20180918 9 9 5607 4
20180919 11 11 6853 5
20180920 6 6 3738 3
20180921 8 8 4984 5
20180922 2 2 1246 1
20180923 17 17 10591 4
20180924 1 1 623 1
20180925 10 10 6230 5
20180926 4 4 2492 3
20180927 9 9 5607 5
20180928 4 4 2492 2
20180929 10 10 6230 3
20180930 6 6 3738 4
END_DAY

# Session range - Number of visits
BEGIN_SESSION 6
1h+ 1
30s-2mn 4
30mn-1h 6
5mn-15mn 2
0s-30s 81
15mn-30mn 2
END_SESSION

# URL - Pages - Bandwidth - Entry - Exit
# The 25 first Pages must be first (order not required for others)
BEGIN_SIDER 1
/ 192 119616 96 96
END_SIDER
