AWSTATS DATA FILE 7.6 (build 20161204)
# If you remove this file, all statistics for date 201808 will be lost/reset.
# Last config file used to build this data file was /home/upstinnlineco/tmp/awstats/ssl/awstats.upstconline.co.in.conf.

# Position (offset in bytes) in this file for beginning of each section for
# direct I/O access. If you made changes somewhere in this file, you should
# also remove completely the MAP section (AWStats will rewrite it at next
# update).
BEGIN_MAP 28
POS_GENERAL 2023                
POS_TIME 2697                
POS_VISITOR 5998                
POS_DAY 6129                
POS_DOMAIN 3210                
POS_LOGIN 3436                
POS_ROBOT 3591                
POS_WORMS 3723                
POS_EMAILSENDER 3854                
POS_EMAILRECEIVER 3997                
POS_SESSION 6424                
POS_SIDER 6604                
POS_FILETYPES 4132                
POS_DOWNLOADS 4214                
POS_OS 4262                
POS_BROWSER 4401                
POS_SCREENSIZE 4593                
POS_UNKNOWNREFERER 4667                
POS_UNKNOWNREFERERBROWSER 4839                
POS_ORIGIN 4921                
POS_SEREFERRALS 5053                
POS_PAGEREFS 5197                
POS_SEARCHWORDS 5345                
POS_KEYWORDS 5497                
POS_MISC 2361                
POS_ERRORS 5556                
POS_CLUSTER 3292                
POS_SIDER_404 5640                
END_MAP

# LastLine    = Date of last record processed - Last record line number in last log - Last record offset in last log - Last record signature value
# FirstTime   = Date of first visit for history file
# LastTime    = Date of last visit for history file
# LastUpdate  = Date of last update - Nb of parsed records - Nb of parsed old records - Nb of parsed new records - Nb of parsed corrupted - Nb of parsed dropped
# TotalVisits = Number of visits
# TotalUnique = Number of unique visitors
# MonthHostsKnown   = Number of hosts known
# MonthHostsUnKnown = Number of hosts unknown
BEGIN_GENERAL 8
LastLine 20180812063834 6 842 11554614293349
FirstTime 20180801015530
LastTime 20180812063834
LastUpdate 20180812071301 6 0 6 0 0
TotalVisits 27                  
TotalUnique 1                   
MonthHostsKnown 0                   
MonthHostsUnknown 1                   
END_GENERAL

# Misc ID - Pages - Hits - Bandwidth
BEGIN_MISC 10
RealPlayerSupport 0 0 0
AddToFavourites 0 0 0
WindowsMediaPlayerSupport 0 0 0
DirectorSupport 0 0 0
TotalMisc 0 0 0
FlashSupport 0 0 0
PDFSupport 0 0 0
JavaEnabled 0 0 0
JavascriptDisabled 0 0 0
QuickTimeSupport 0 0 0
END_MISC

# Hour - Pages - Hits - Bandwidth - Not viewed Pages - Not viewed Hits - Not viewed Bandwidth
BEGIN_TIME 24
0 6 6 3738 0 0 0
1 6 6 3738 0 0 0
2 3 3 1869 0 0 0
3 2 2 1246 0 0 0
4 3 3 1869 0 0 0
5 3 3 1869 0 0 0
6 1 1 623 0 0 0
7 0 0 0 0 0 0
8 0 0 0 0 0 0
9 0 0 0 0 0 0
10 1 1 623 1 2 0
11 1 1 623 0 0 0
12 0 0 0 0 0 0
13 0 0 0 0 0 0
14 3 3 1869 1 2 0
15 0 0 0 0 0 0
16 0 0 0 0 0 0
17 1 1 623 0 0 0
18 0 0 0 0 0 0
19 0 0 0 0 0 0
20 0 0 0 0 0 0
21 1 1 623 0 0 0
22 1 1 623 0 0 0
23 2 2 1246 0 0 0
END_TIME

# Domain - Pages - Hits - Bandwidth
# The 25 first Pages must be first (order not required for others)
BEGIN_DOMAIN 1
us 34 34 21182
END_DOMAIN

# Cluster ID - Pages - Hits - Bandwidth
BEGIN_CLUSTER 0
END_CLUSTER

# Login - Pages - Hits - Bandwidth - Last visit
# The 10 first Pages must be first (order not required for others)
BEGIN_LOGIN 0
END_LOGIN

# Robot ID - Hits - Bandwidth - Last visit - Hits on robots.txt
# The 25 first Hits must be first (order not required for others)
BEGIN_ROBOT 0
END_ROBOT

# Worm ID - Hits - Bandwidth - Last visit
# The 5 first Hits must be first (order not required for others)
BEGIN_WORMS 0
END_WORMS

# EMail - Hits - Bandwidth - Last visit
# The 20 first Hits must be first (order not required for others)
BEGIN_EMAILSENDER 0
END_EMAILSENDER

# EMail - Hits - Bandwidth - Last visit
# The 20 first hits must be first (order not required for others)
BEGIN_EMAILRECEIVER 0
END_EMAILRECEIVER

# Files type - Hits - Bandwidth - Bandwidth without compression - Bandwidth after compression
BEGIN_FILETYPES 1
html 34 21182 0 0
END_FILETYPES

# Downloads - Hits - Bandwidth
BEGIN_DOWNLOADS 0
END_DOWNLOADS

# OS ID - Hits
BEGIN_OS ID - Hits - Pages 6
win10 19 19
win7 6 6
linuxandroid 1 1
Unknown 2 2
macosx 1 1
macosx12 5 5
END_OS

# Browser ID - Hits - Pages
BEGIN_BROWSER 7
mozilla 2 2
chrome59.0.3071.125 1 1
safari11.0.3 1 1
chrome66.0.3359.181 19 19
chrome61.0.3163.100 4 4
firefox58.0 1 1
chrome40.0.2214.85 6 6
END_BROWSER

# Screen size - Hits
BEGIN_SCREENSIZE 0
END_SCREENSIZE

# Unknown referer OS - Last visit date
BEGIN_UNKNOWNREFERER 1
Mozilla/5.0_(compatible;_NetcraftSurveyAgent/1.0;__info@netcraft.com) 20180811112326
END_UNKNOWNREFERER

# Unknown referer Browser - Last visit date
BEGIN_UNKNOWNREFERERBROWSER 0
END_UNKNOWNREFERERBROWSER

# Origin - Pages - Hits 
BEGIN_ORIGIN 6
From0 34 34
From1 0 0
From2 0 0
From3 0 0
From4 0 0
From5 0 0
END_ORIGIN

# Search engine referers ID - Pages - Hits
BEGIN_SEREFERRALS 0
END_SEREFERRALS

# External page referers - Pages - Hits
# The 25 first Pages must be first (order not required for others)
BEGIN_PAGEREFS 0
END_PAGEREFS

# Search keyphrases - Number of search
# The 10 first number of search must be first (order not required for others)
BEGIN_SEARCHWORDS 0
END_SEARCHWORDS

# Search keywords - Number of search
# The 25 first number of search must be first (order not required for others)
BEGIN_KEYWORDS 0
END_KEYWORDS

# Errors - Hits - Bandwidth
BEGIN_ERRORS 1
404 4 0
END_ERRORS

# URL with 404 errors - Hits - Last URL referrer
BEGIN_SIDER_404 2
/robots.txt 2 -
/.well-known/assetlinks.json 2 -
END_SIDER_404

# Host - Pages - Hits - Bandwidth - Last visit date - [Start date of last visit] - [Last page of last visit]
# [Start date of last visit] and [Last page of last visit] are saved only if session is not finished
# The 25 first Hits must be first (order not required for others)
BEGIN_VISITOR 1
192.151.155.66 34 34 21182 20180812063834 20180812063834 /
END_VISITOR

# Date - Pages - Hits - Bandwidth - Visits
BEGIN_DAY 12
20180801 2 2 1246 2
20180802 5 5 3115 4
20180803 3 3 1869 3
20180804 1 1 623 1
20180805 2 2 1246 1
20180806 3 3 1869 2
20180807 2 2 1246 1
20180808 3 3 1869 3
20180809 3 3 1869 2
20180810 5 5 3115 3
20180811 4 4 2492 4
20180812 1 1 623 1
END_DAY

# Session range - Number of visits
BEGIN_SESSION 4
30mn-1h 3
15mn-30mn 1
5mn-15mn 1
0s-30s 21
END_SESSION

# URL - Pages - Bandwidth - Entry - Exit
# The 25 first Pages must be first (order not required for others)
BEGIN_SIDER 1
/ 34 21182 27 26
END_SIDER
